{
  "kind": "collectionType",
  "collectionName": "seasons",
  "info": {
    "name": "season"
  },
  "options": {
    "increments": true,
    "timestamps": true,
    "draftAndPublish": true
  },
  "attributes": {
    "startdate": {
      "type": "date"
    },
    "enddate": {
      "type": "date"
    }
  }
}
